Text Mining II
…
Step 3: Use arrange function to sort the average sentiment score in descending order. Or, you can use slice_max function to select the rows with the highest sentiment score. Step 4: Use the IDs of the reviews with the highest and lowest average sentiments to filter the movie_review dataset and see if your results make sense.

sorted_review_sentiment <- 
  review_sentiment |>
  # group by review id
  group_by(id) |> 
  # compute the average sentiment score
  summarize(average_sentiment = mean(value),
            sentiment = mean(sentiment)) |> 
  # arrange the average sentiment score in descending order
  arrange(desc(average_sentiment)) 

sorted_review_sentiment

# A tibble: 5,000 × 3
   id       average_sentiment sentiment
   <chr>                <dbl>     <dbl>
 1 12421_10              6.99         1
 2 6601_4                6.94         0
 3 10780_10              6.90         1
 4 2684_10               6.85         1
 5 8714_10               6.83         1
 6 4518_9                6.78         1
 7 226_10                6.75         1
 8 11841_9               6.74         1
 9 2642_10               6.72         1
10 9144_7                6.72         1
# ℹ 4,990 more rows
…
