Supervised learning: regression in R
…
# it's a matrix with an estimate and a lower and an upper confidence interval.

12. Create a data frame with 4 columns: lstat, medv, lower, and upper using the pred_dat data and y_pred_95.

gg_pred <- tibble(
  lstat = pred_dat$lstat,
  medv  = y_pred_95[, 1],
  lower = y_pred_95[, 2],
  upper = y_pred_95[, 3]
)

gg_pred

# A tibble: 1,000 x 4
    lstat  medv lower upper
    <dbl> <dbl> <dbl> <dbl>
 1 0       34.6  33.4  35.7
 2 0.0400  34.5  33.4  35.6
 3 0.0801  34.5  33.4  35.6
 4 0.120   34.4  33.3  35.5
 5 0.160   34.4  33.3  35.5
 6 0.200   34.4  33.3  35.5
 7 0.240   34.3  33.2  35.4
 8 0.280   34.3  33.2  35.4
 9 0.320   34.2  33.2  35.3
10 0.360   34.2  33.1  35.3
# i 990 more rows
…
